0
SECTION
2
HEADER
9
$INSUNITS
70
4
9
$ACADVER
1
AC1014
9
$HANDSEED
5
FFFF
0
ENDSEC
0
SECTION
2
TABLES
0
TABLE
2
VPORT
5
8
100
AcDbSymbolTable
0
ENDTAB
0
TABLE
2
LTYPE
5
5
100
AcDbSymbolTable
0
LTYPE
5
14
100
AcDbSymbolTableRecord
100
AcDbLinetypeTableRecord
2
BYBLOCK
70
0
0
LTYPE
5
15
100
AcDbSymbolTableRecord
100
AcDbLinetypeTableRecord
2
BYLAYER
70
0
0
ENDTAB
0
TABLE
2
LAYER
5
2
100
AcDbSymbolTable
70
2
0
LAYER
5
50
100
AcDbSymbolTableRecord
100
AcDbLayerTableRecord
2
0
70
0
6
CONTINUOUS
0
ENDTAB
0
TABLE
2
STYLE
5
3
100
AcDbSymbolTable
70
1
0
STYLE
5
11
100
AcDbSymbolTableRecord
100
AcDbTextStyleTableRecord
2
STANDARD
70
0
0
ENDTAB
0
TABLE
2
VIEW
5
6
100
AcDbSymbolTable
70
0
0
ENDTAB
0
TABLE
2
UCS
5
7
100
AcDbSymbolTable
70
0
0
ENDTAB
0
TABLE
2
APPID
5
9
100
AcDbSymbolTable
70
2
0
APPID
5
12
100
AcDbSymbolTableRecord
100
AcDbRegAppTableRecord
2
ACAD
70
0
0
ENDTAB
0
TABLE
2
DIMSTYLE
5
A
100
AcDbSymbolTable
70
1
0
ENDTAB
0
TABLE
2
BLOCK_RECORD
5
1
100
AcDbSymbolTable
70
1
0
BLOCK_RECORD
5
1F
100
AcDbSymbolTableRecord
100
AcDbBlockTableRecord
2
*MODEL_SPACE
0
BLOCK_RECORD
5
1B
100
AcDbSymbolTableRecord
100
AcDbBlockTableRecord
2
*PAPER_SPACE
0
ENDTAB
0
ENDSEC
0
SECTION
2
BLOCKS
0
BLOCK
5
20
100
AcDbEntity
100
AcDbBlockBegin
2
*MODEL_SPACE
0
ENDBLK
5
21
100
AcDbEntity
100
AcDbBlockEnd
0
BLOCK
5
1C
100
AcDbEntity
100
AcDbBlockBegin
2
*PAPER_SPACE
0
ENDBLK
5
1D
100
AcDbEntity
100
AcDbBlockEnd
0
ENDSEC
0
SECTION
2
ENTITIES
0
CIRCLE
5
100
100
AcDbEntity
8
0
100
AcDbCircle
10
100.00000000000054
20
-220.00000000000006
30
0
40
20
210
0
220
0
230
1
0
CIRCLE
5
101
100
AcDbEntity
8
0
100
AcDbCircle
10
49.999999997597733
20
-219.99999999759768
30
0
40
5.1000000000000023
210
0
220
0
230
1
0
LINE
5
102
100
AcDbEntity
8
0
100
AcDbLine
10
112
20
-222
30
0
11
88
21
-218
31
0
0
LINE
5
103
100
AcDbEntity
8
0
100
AcDbLine
10
112
20
-222
30
0
11
88
21
-222
31
0
0
LINE
5
104
100
AcDbEntity
8
0
100
AcDbLine
10
62
20
-222
30
0
11
37.999999999999993
21
-222
31
0
0
LINE
5
105
100
AcDbEntity
8
0
100
AcDbLine
10
120.00000000000054
20
-240
30
0
11
80
21
-240
31
0
0
LINE
5
106
100
AcDbEntity
8
0
100
AcDbLine
10
52
20
-232
30
0
11
48
21
-232
31
0
0
LINE
5
107
100
AcDbEntity
8
0
100
AcDbLine
10
30.070367516342493
20
-200.14073503268497
30
0
11
70.000001043081284
21
-200.14073503268497
31
0
0
LINE
5
108
100
AcDbEntity
8
0
100
AcDbLine
10
37.999999999999993
20
-222
30
0
11
62
21
-218
31
0
0
LINE
5
109
100
AcDbEntity
8
0
100
AcDbLine
10
70.000001043081284
20
-240.07036751817748
30
0
11
30.070367516342493
21
-240.07036751817748
31
0
0
CIRCLE
5
110
100
AcDbEntity
8
0
100
AcDbCircle
10
50.000000000000078
20
-220
30
0
40
16.800000000000001
210
0
220
0
230
1
0
LINE
5
111
100
AcDbEntity
8
0
100
AcDbLine
10
70.000001043081284
20
-200.14073503268497
30
0
11
70.000001043081284
21
-240.07036751817748
31
0
0
LINE
5
112
100
AcDbEntity
8
0
100
AcDbLine
10
88
20
-222
30
0
11
88
21
-218
31
0
0
LINE
5
113
100
AcDbEntity
8
0
100
AcDbLine
10
120.00000000000054
20
-200
30
0
11
120.00000000000054
21
-240
31
0
0
LINE
5
114
100
AcDbEntity
8
0
100
AcDbLine
10
48
20
-208
30
0
11
52
21
-208
31
0
0
LINE
5
115
100
AcDbEntity
8
0
100
AcDbLine
10
88
20
-218
30
0
11
112
21
-218
31
0
0
LINE
5
116
100
AcDbEntity
8
0
100
AcDbLine
10
48
20
-232
30
0
11
48
21
-208
31
0
0
LINE
5
117
100
AcDbEntity
8
0
100
AcDbLine
10
80
20
-240
30
0
11
120.00000000000054
21
-200
31
0
0
CIRCLE
5
118
100
AcDbEntity
8
0
100
AcDbCircle
10
49.999999997597733
20
-219.99999999759768
30
0
40
20
210
0
220
0
230
1
0
LINE
5
119
100
AcDbEntity
8
0
100
AcDbLine
10
88
20
-222
30
0
11
112
21
-218
31
0
0
LINE
5
120
100
AcDbEntity
8
0
100
AcDbLine
10
62
20
-222
30
0
11
38
21
-218
31
0
0
CIRCLE
5
121
100
AcDbEntity
8
0
100
AcDbCircle
10
100.00000000000054
20
-220.00000000000006
30
0
40
16.800000000000001
210
0
220
0
230
1
0
LINE
5
122
100
AcDbEntity
8
0
100
AcDbLine
10
112
20
-218
30
0
11
112
21
-222
31
0
0
LINE
5
123
100
AcDbEntity
8
0
100
AcDbLine
10
80
20
-200
30
0
11
120.00000000000054
21
-200
31
0
0
CIRCLE
5
124
100
AcDbEntity
8
0
100
AcDbCircle
10
100.00000000000054
20
-220.00000000000006
30
0
40
5.1000000000000014
210
0
220
0
230
1
0
LINE
5
125
100
AcDbEntity
8
0
100
AcDbLine
10
30.070367516342493
20
-240.07036751817748
30
0
11
30.070367516342493
21
-200.14073503268497
31
0
0
LINE
5
126
100
AcDbEntity
8
0
100
AcDbLine
10
80
20
-240
30
0
11
80
21
-200
31
0
0
LINE
5
127
100
AcDbEntity
8
0
100
AcDbLine
10
37.999999999999993
20
-222
30
0
11
38
21
-218
31
0
0
LINE
5
128
100
AcDbEntity
8
0
100
AcDbLine
10
52
20
-232
30
0
11
48
21
-208
31
0
0
LINE
5
129
100
AcDbEntity
8
0
100
AcDbLine
10
48
20
-232
30
0
11
52
21
-208
31
0
0
LINE
5
130
100
AcDbEntity
8
0
100
AcDbLine
10
52
20
-208
30
0
11
52
21
-232
31
0
0
LINE
5
131
100
AcDbEntity
8
0
100
AcDbLine
10
62
20
-218
30
0
11
62
21
-222
31
0
0
LINE
5
132
100
AcDbEntity
8
0
100
AcDbLine
10
38
20
-218
30
0
11
62
21
-218
31
0
0
LINE
5
133
100
AcDbEntity
8
0
100
AcDbLine
10
30.070367516342493
20
-240.07036751817748
30
0
11
70.000001043081284
21
-200.14073503268497
31
0
0
LINE
5
134
100
AcDbEntity
8
0
100
AcDbLine
10
64.142135623730994
20
-205.85786437626899
30
0
11
70.000001043081284
21
-205.85786437626899
31
0
0
SPLINE
5
135
100
AcDbEntity
8
0
100
AcDbSpline
70
4
71
5
72
16
73
10
74
0
42
0.000000001
43
0.0000000001
44
0.0000000001
40
0
40
0
40
0
40
0
40
0
40
0
40
0.20000000000000001
40
0.40000000000000002
40
0.60000000000000009
40
0.80000000000000004
40
1
40
1
40
1
40
1
40
1
40
1
41
1
41
1
41
1
41
1
41
1
41
1
41
1
41
1
41
1
41
1
10
65.666113367606556
20
-207.38184305021093
30
0
10
65.66126427349279
20
-207.38313062385816
30
0
10
65.651572001715493
20
-207.38572232949207
30
0
10
65.637051335937841
20
-207.38965954207615
30
0
10
65.617728397846122
20
-207.39501536824156
30
0
10
65.59366891770155
20
-207.4019737669349
30
0
10
65.574544169208309
20
-207.40788426531998
30
0
10
65.56030440888722
20
-207.4126076465744
30
0
10
65.5508647516194
20
-207.41590634314915
30
0
10
65.546158314101859
20
-207.41759316908548
30
0
0
LINE
5
136
100
AcDbEntity
8
0
100
AcDbLine
10
49.999999997597733
20
-219.99999999759768
30
0
11
45.000000670552254
21
-215.00000320374966
31
0
0
ARC
5
137
100
AcDbEntity
8
0
100
AcDbCircle
10
58.199112772709526
20
-202.89311584126602
30
0
40
4.1366329590188453
210
-0
220
0
230
1
100
AcDbArc
50
291.04566380949547
51
338.95229568966943
0
SPLINE
5
138
100
AcDbEntity
8
0
100
AcDbSpline
70
4
71
5
72
16
73
10
74
0
42
0.000000001
43
0.0000000001
44
0.0000000001
40
0
40
0
40
0
40
0
40
0
40
0
40
0.20000000000000001
40
0.40000000000000002
40
0.60000000000000009
40
0.80000000000000004
40
1
40
1
40
1
40
1
40
1
40
1
41
1
41
1
41
1
41
1
41
1
41
1
41
1
41
1
41
1
41
1
10
59.684764320486536
20
-206.75375979224475
30
0
10
59.546158508610525
20
-206.81502976225983
30
0
10
59.272141315019041
20
-206.92739875723856
30
0
10
58.870678434563366
20
-207.06546727246882
30
0
10
58.341704124458609
20
-207.19735333048547
30
0
10
57.615459084802978
20
-207.30679846759341
30
0
10
56.896620284304831
20
-207.37084411959873
30
0
10
56.226051598703705
20
-207.41275854596762
30
0
10
55.710031163425541
20
-207.43865745832284
30
0
10
55.434761155852428
20
-207.45109599859677
30
0
0
SPLINE
5
139
100
AcDbEntity
8
0
100
AcDbSpline
70
4
71
5
72
16
73
10
74
0
42
0.000000001
43
0.0000000001
44
0.0000000001
40
0
40
0
40
0
40
0
40
0
40
0
40
0.20000000000000001
40
0.40000000000000002
40
0.60000000000000009
40
0.80000000000000004
40
1
40
1
40
1
40
1
40
1
40
1
41
1
41
1
41
1
41
1
41
1
41
1
41
1
41
1
41
1
41
1
10
59.684764320486536
20
-208.14843220494873
30
0
10
59.546158508610525
20
-208.08716223493374
30
0
10
59.272141315019041
20
-207.97479323995589
30
0
10
58.870678434563366
20
-207.83672472473168
30
0
10
58.341704124458609
20
-207.70483866671711
30
0
10
57.615459084802978
20
-207.59539352960704
30
0
10
56.896620284304831
20
-207.5313478775968
30
0
10
56.226051598703705
20
-207.48943345122629
30
0
10
55.710031163425541
20
-207.4635345388707
30
0
10
55.434761155852428
20
-207.45109599859677
30
0
0
ARC
5
140
100
AcDbEntity
8
0
100
AcDbCircle
10
58.199112772709498
20
-212.00907615592752
30
0
40
4.1366329590188879
210
0
220
-0
230
1
100
AcDbArc
50
21.047200088085198
51
68.953405469618488
0
SPLINE
5
141
100
AcDbEntity
8
0
100
AcDbSpline
70
4
71
5
72
16
73
10
74
0
42
0.000000001
43
0.0000000001
44
0.0000000001
40
0
40
0
40
0
40
0
40
0
40
0
40
0.20000000000000001
40
0.40000000000000002
40
0.60000000000000009
40
0.80000000000000004
40
1
40
1
40
1
40
1
40
1
40
1
41
1
41
1
41
1
41
1
41
1
41
1
41
1
41
1
41
1
41
1
10
62.059756723688288
20
-210.52342460815049
30
0
10
62.12102669370335
20
-210.66203042002644
30
0
10
62.233395688681867
20
-210.93604761361797
30
0
10
62.371464203910705
20
-211.33751049407607
30
0
10
62.503350261926947
20
-211.86648480418086
30
0
10
62.612795399035328
20
-212.59272984383543
30
0
10
62.676841051041905
20
-213.31156864433217
30
0
10
62.718755477411065
20
-213.98213732993324
30
0
10
62.744654389766353
20
-214.49815776521146
30
0
10
62.75709293004028
20
-214.7734277727846
30
0
0
SPLINE
5
142
100
AcDbEntity
8
0
100
AcDbSpline
70
4
71
5
72
16
73
10
74
0
42
0.000000001
43
0.0000000001
44
0.0000000001
40
0
40
0
40
0
40
0
40
0
40
0
40
0.20000000000000001
40
0.40000000000000002
40
0.60000000000000009
40
0.80000000000000004
40
1
40
1
40
1
40
1
40
1
40
1
41
1
41
1
41
1
41
1
41
1
41
1
41
1
41
1
41
1
41
1
10
63.454429136392278
20
-210.52342460815049
30
0
10
63.393159166377259
20
-210.66203042002644
30
0
10
63.280790171398905
20
-210.93604761361797
30
0
10
63.142721656171339
20
-211.33751049407607
30
0
10
63.010835598155367
20
-211.86648480418086
30
0
10
62.901390461046525
20
-212.59272984383543
30
0
10
62.837344809038989
20
-213.31156864433217
30
0
10
62.795430382669551
20
-213.98213732993324
30
0
10
62.769531470314213
20
-214.49815776521146
30
0
10
62.75709293004028
20
-214.7734277727846
30
0
0
ARC
5
143
100
AcDbEntity
8
0
100
AcDbCircle
10
67.315073087371061
20
-212.00907615592752
30
0
40
4.1366329590188977
210
0
220
0
230
1
100
AcDbArc
50
111.0477043103314
51
158.95389402840956
0
SPLINE
5
144
100
AcDbEntity
8
0
100
AcDbSpline
70
4
71
5
72
16
73
10
74
0
42
0.000000001
43
0.0000000001
44
0.0000000001
40
0
40
0
40
0
40
0
40
0
40
0
40
0.20000000000000001
40
0.40000000000000002
40
0.60000000000000009
40
0.80000000000000004
40
1
40
1
40
1
40
1
40
1
40
1
41
1
41
1
41
1
41
1
41
1
41
1
41
1
41
1
41
1
41
1
10
65.829421539594023
20
-208.14843220494873
30
0
10
65.968027351470056
20
-208.08716223493354
30
0
10
66.242044545061518
20
-207.97479323995506
30
0
10
66.643507425517754
20
-207.8367247247287
30
0
10
67.172481735622227
20
-207.7048386667131
30
0
10
67.898726775277439
20
-207.59539352960383
30
0
10
68.617565575775359
20
-207.53134787759552
30
0
10
69.28813426137674
20
-207.48943345122603
30
0
10
69.804154696655004
20
-207.4635345388707
30
0
10
70.079424704228131
20
-207.45109599859677
30
0
0
ARC
5
145
100
AcDbEntity
8
0
100
AcDbCircle
10
67.315073087371061
20
-202.89311584126602
30
0
40
4.1366329590188737
210
0
220
0
230
1
100
AcDbArc
50
201.04770431033046
51
248.95229568966829
0
SPLINE
5
146
100
AcDbEntity
8
0
100
AcDbSpline
70
4
71
5
72
16
73
10
74
0
42
0.000000001
43
0.0000000001
44
0.0000000001
40
0
40
0
40
0
40
0
40
0
40
0
40
0.20000000000000001
40
0.40000000000000002
40
0.60000000000000009
40
0.80000000000000004
40
1
40
1
40
1
40
1
40
1
40
1
41
1
41
1
41
1
41
1
41
1
41
1
41
1
41
1
41
1
41
1
10
65.829421539594023
20
-206.75375979224475
30
0
10
65.968027351470013
20
-206.81502976225983
30
0
10
66.242044545061447
20
-206.92739875723856
30
0
10
66.643507425517853
20
-207.06546727246882
30
0
10
67.172481735622441
20
-207.19735333048547
30
0
10
67.898726775277666
20
-207.30679846759341
30
0
10
68.617565575775487
20
-207.37084411959873
30
0
10
69.288134261376769
20
-207.41275854596762
30
0
10
69.804154696655004
20
-207.43865745832284
30
0
10
70.079424704228131
20
-207.45109599859677
30
0
0
SPLINE
5
147
100
AcDbEntity
8
0
100
AcDbSpline
70
4
71
5
72
16
73
10
74
0
42
0.000000001
43
0.0000000001
44
0.0000000001
40
0
40
0
40
0
40
0
40
0
40
0
40
0.20000000000000001
40
0.40000000000000002
40
0.60000000000000009
40
0.80000000000000004
40
1
40
1
40
1
40
1
40
1
40
1
41
1
41
1
41
1
41
1
41
1
41
1
41
1
41
1
41
1
41
1
10
63.454429136392278
20
-204.37876738904299
30
0
10
63.393159166377259
20
-204.24016157716704
30
0
10
63.280790171398912
20
-203.9661443835756
30
0
10
63.142721656171389
20
-203.56468150312088
30
0
10
63.010835598155488
20
-203.03570719301618
30
0
10
62.901390461046695
20
-202.30946215336036
30
0
10
62.837344809039081
20
-201.59062335286143
30
0
10
62.795430382669572
20
-200.92005466726027
30
0
10
62.769531470314213
20
-200.40403423198202
30
0
10
62.757092930040287
20
-200.12876422440888
30
0
0
SPLINE
5
148
100
AcDbEntity
8
0
100
AcDbSpline
70
4
71
5
72
16
73
10
74
0
42
0.000000001
43
0.0000000001
44
0.0000000001
40
0
40
0
40
0
40
0
40
0
40
0
40
0.20000000000000001
40
0.40000000000000002
40
0.60000000000000009
40
0.80000000000000004
40
1
40
1
40
1
40
1
40
1
40
1
41
1
41
1
41
1
41
1
41
1
41
1
41
1
41
1
41
1
41
1
10
62.059756723688288
20
-204.37876738904299
30
0
10
62.12102669370335
20
-204.24016157716704
30
0
10
62.233395688681874
20
-203.9661443835756
30
0
10
62.371464203910719
20
-203.56468150312088
30
0
10
62.503350261927039
20
-203.03570719301618
30
0
10
62.612795399035463
20
-202.30946215336036
30
0
10
62.676841051041976
20
-201.59062335286143
30
0
10
62.718755477411072
20
-200.92005466726027
30
0
10
62.744654389766353
20
-200.40403423198202
30
0
10
62.757092930040287
20
-200.12876422440888
30
0
0
SPLINE
5
149
100
AcDbEntity
8
0
100
AcDbSpline
70
4
71
5
72
16
73
10
74
0
42
0.000000001
43
0.0000000001
44
0.0000000001
40
0
40
0
40
0
40
0
40
0
40
0
40
0.20000000000000001
40
0.40000000000000002
40
0.60000000000000009
40
0.80000000000000004
40
1
40
1
40
1
40
1
40
1
40
1
41
1
41
1
41
1
41
1
41
1
41
1
41
1
41
1
41
1
41
1
10
38.148437111636355
20
-229.68477032495986
30
0
10
38.08716707139817
20
-229.54616454412565
30
0
10
37.974797937591902
20
-229.27214740746476
30
0
10
37.836729218967278
20
-228.87068459696104
30
0
10
37.704842892951994
20
-228.34171035367467
30
0
10
37.595397387898593
20
-227.61546536946787
30
0
10
37.531351371698761
20
-226.89662660141749
30
0
10
37.489436605592587
20
-226.22605793705236
30
0
10
37.463537431800795
20
-225.71003751489576
30
0
10
37.451098752064162
20
-225.43476751362454
30
0
0
ARC
5
150
100
AcDbEntity
8
0
100
AcDbCircle
10
42.009080309924578
20
-228.19911682122762
30
0
40
4.1366329590188773
210
0
220
0
230
1
100
AcDbArc
50
201.0466235586982
51
248.95282894023063
0
SPLINE
5
151
100
AcDbEntity
8
0
100
AcDbSpline
70
4
71
5
72
16
73
10
74
0
42
0.000000001
43
0.0000000001
44
0.0000000001
40
0
40
0
40
0
40
0
40
0
40
0
40
0.20000000000000001
40
0.40000000000000002
40
0.60000000000000009
40
0.80000000000000004
40
1
40
1
40
1
40
1
40
1
40
1
41
1
41
1
41
1
41
1
41
1
41
1
41
1
41
1
41
1
41
1
10
36.753764698932549
20
-229.68477103155629
30
0
10
36.815034598724402
20
-229.54616518863847
30
0
10
36.927403454874849
20
-229.27214793811663
30
0
10
37.065471766706118
20
-228.87068498771242
30
0
10
37.197357556722672
20
-228.34171061078959
30
0
10
37.306802325886565
20
-227.61546551568409
30
0
10
37.370847613701343
20
-226.89662668273616
30
0
10
37.41276170033403
20
-226.2260579758991
30
0
10
37.438660351252942
20
-225.71003752749948
30
0
10
37.451098752064162
20
-225.43476751362454
30
0
0
ARC
5
152
100
AcDbEntity
8
0
100
AcDbCircle
10
32.89311999526425
20
-228.19912143973497
30
0
40
4.1366329590188133
210
-0
220
0
230
1
100
AcDbArc
50
291.04773333864699
51
338.95436521882073
0
SPLINE
5
153
100
AcDbEntity
8
0
100
AcDbSpline
70
4
71
5
72
16
73
10
74
0
42
0.000000001
43
0.0000000001
44
0.0000000001
40
0
40
0
40
0
40
0
40
0
40
0
40
0.20000000000000001
40
0.40000000000000002
40
0.60000000000000009
40
0.80000000000000004
40
1
40
1
40
1
40
1
40
1
40
1
41
1
41
1
41
1
41
1
41
1
41
1
41
1
41
1
41
1
41
1
10
40.523430718103185
20
-232.05976152489592
30
0
10
40.662036561020926
20
-232.12103142468777
30
0
10
40.936053811542905
20
-232.23340028083868
30
0
10
41.337516761950141
20
-232.37146859267298
30
0
10
41.866491138873563
20
-232.50335438269059
30
0
10
42.592736233978165
20
-232.61279915185321
30
0
10
43.311575066923908
20
-232.67684443966562
30
0
10
43.982143773760441
20
-232.71875852629748
30
0
10
44.49816422216
20
-232.74465717721631
30
0
10
44.773434236034959
20
-232.75709557802753
30
0
0
SPLINE
5
154
100
AcDbEntity
8
0
100
AcDbSpline
70
4
71
5
72
16
73
10
74
0
42
0.000000001
43
0.0000000001
44
0.0000000001
40
0
40
0
40
0
40
0
40
0
40
0
40
0.20000000000000001
40
0.40000000000000002
40
0.60000000000000009
40
0.80000000000000004
40
1
40
1
40
1
40
1
40
1
40
1
41
1
41
1
41
1
41
1
41
1
41
1
41
1
41
1
41
1
41
1
10
40.523431424699595
20
-233.45443393759973
30
0
10
40.662037205533743
20
-233.39316389736152
30
0
10
40.936054342194467
20
-233.28079476355572
30
0
10
41.337517152699455
20
-233.14272604493465
30
0
10
41.866491395985264
20
-233.01083971892092
30
0
10
42.592736380191369
20
-232.90139421386638
30
0
10
43.311575148241218
20
-232.83734819766366
30
0
10
43.982143812606921
20
-232.79543343155615
30
0
10
44.498164234763713
20
-232.76953425776415
30
0
10
44.773434236034959
20
-232.75709557802753
30
0
0
ARC
5
155
100
AcDbEntity
8
0
100
AcDbCircle
10
42.009084928431903
20
-237.31507713588798
30
0
40
4.1366329590188791
210
0
220
0
230
1
100
AcDbArc
50
111.04613499990649
51
158.95047075394044
0
SPLINE
5
156
100
AcDbEntity
8
0
100
AcDbSpline
70
4
71
5
72
16
73
10
74
0
42
0.000000001
43
0.0000000001
44
0.0000000001
40
0
40
0
40
0
40
0
40
0
40
0
40
0.20000000000000001
40
0.40000000000000002
40
0.60000000000000009
40
0.80000000000000004
40
1
40
1
40
1
40
1
40
1
40
1
41
1
41
1
41
1
41
1
41
1
41
1
41
1
41
1
41
1
41
1
10
36.753767812059777
20
-235.829428250663
30
0
10
36.815037852298047
20
-235.96803403149718
30
0
10
36.927406986104515
20
-236.24205116815813
30
0
10
37.065475704730034
20
-236.64351397866528
30
0
10
37.197362030745566
20
-237.1724882219516
30
0
10
37.306807535798548
20
-237.898733206157
30
0
10
37.370853551997669
20
-238.61757197420545
30
0
10
37.412768318103616
20
-239.28814063857047
30
0
10
37.438667491895373
20
-239.8041610607271
30
0
10
37.45110617163202
20
-240.07943106199832
30
0
0
ARC
5
157
100
AcDbEntity
8
0
100
AcDbCircle
10
32.893124613771519
20
-237.31508175439524
30
0
40
4.1366329590188728
210
0
220
-0
230
1
100
AcDbArc
50
21.047733338646463
51
68.952324717984411
0
SPLINE
5
158
100
AcDbEntity
8
0
100
AcDbSpline
70
4
71
5
72
16
73
10
74
0
42
0.000000001
43
0.0000000001
44
0.0000000001
40
0
40
0
40
0
40
0
40
0
40
0
40
0.20000000000000001
40
0.40000000000000002
40
0.60000000000000009
40
0.80000000000000004
40
1
40
1
40
1
40
1
40
1
40
1
41
1
41
1
41
1
41
1
41
1
41
1
41
1
41
1
41
1
41
1
10
34.378773498996502
20
-232.05976463802315
30
0
10
34.24016771816234
20
-232.12103467826142
30
0
10
33.966150581501601
20
-232.23340381206805
30
0
10
33.564687770997182
20
-232.37147253069514
30
0
10
33.03571352771143
20
-232.50335885671078
30
0
10
32.30946854350514
20
-232.61280436176304
30
0
10
31.5906297754549
20
-232.67685037796105
30
0
10
30.92006111108919
20
-232.71876514406688
30
0
10
30.404040688932405
20
-232.74466431785871
30
0
10
30.128770687661159
20
-232.75710299759535
30
0
0
SPLINE
5
159
100
AcDbEntity
8
0
100
AcDbSpline
70
4
71
5
72
16
73
10
74
0
42
0.000000001
43
0.0000000001
44
0.0000000001
40
0
40
0
40
0
40
0
40
0
40
0
40
0.20000000000000001
40
0.40000000000000002
40
0.60000000000000009
40
0.80000000000000004
40
1
40
1
40
1
40
1
40
1
40
1
41
1
41
1
41
1
41
1
41
1
41
1
41
1
41
1
41
1
41
1
10
34.378774205592904
20
-233.45443705072697
30
0
10
34.240168362675149
20
-233.39316715093517
30
0
10
33.966151112153192
20
-233.28079829478509
30
0
10
33.564688161746503
20
-233.14272998295689
30
0
10
33.035713784823173
20
-233.01084419294136
30
0
10
32.309468689718422
20
-232.90139942377652
30
0
10
31.590629856772292
20
-232.83735413595937
30
0
10
30.920061149935698
20
-232.79544004932569
30
0
10
30.404040701536115
20
-232.76954139840655
30
0
10
30.128770687661159
20
-232.75710299759535
30
0
0
LWPOLYLINE
5
160
100
AcDbEntity
8
0
100
AcDbPolyline
90
4
70
1
43
0.0
10
170
20
-200
10
130
20
-200
10
130
20
-240
10
170
20
-240
0
LINE
5
161
100
AcDbEntity
8
0
100
AcDbLine
10
168
20
-237.94120792224226
30
0
11
136.18384860936035
21
-237.94120792224226
31
0
0
LINE
5
162
100
AcDbEntity
8
0
100
AcDbLine
10
168
20
-237.94120792224226
30
0
11
132.02128793618081
21
-202
31
0
0
ARC
5
163
100
AcDbEntity
8
0
100
AcDbCircle
10
134.0633490911288
20
-235.93665090887129
30
0
40
2.918007372621779
210
0
220
0
230
1
100
AcDbArc
50
133.39001777280748
51
316.60998222718462
0
ARC
5
164
100
AcDbEntity
8
0
100
AcDbCircle
10
162.92585126654859
20
-207.07414873345141
30
0
40
6.4468649200331232
210
0
220
0
230
1
100
AcDbArc
50
-38.08725200002656
51
128.08725200002658
0
ARC
5
165
100
AcDbEntity
8
0
100
AcDbCircle
10
134.14297707892007
20
-235.85702292107996
30
0
40
1.0004689042508836
210
0
220
0
230
1
100
AcDbArc
50
136.75426371873007
51
313.24573628126984
0
ARC
5
166
100
AcDbEntity
8
0
100
AcDbCircle
10
156.92313840566121
20
-213.07686159433882
30
0
40
1.0000231490746263
210
-0
220
0
230
1
100
AcDbArc
50
-45.389852441784591
51
135.38985244178457
0
ARC
5
167
100
AcDbEntity
8
0
100
AcDbCircle
10
143.16203758981533
20
-226.75223042435897
30
0
40
7.2053823426689645
210
0
220
0
230
1
100
AcDbArc
50
163.38036544764401
51
200.99690256208856
0
ARC
5
168
100
AcDbEntity
8
0
100
AcDbCircle
10
143.16203758981533
20
-226.75223042435897
30
0
40
7.2053823426690036
210
0
220
0
230
1
100
AcDbArc
50
250.07313118394262
51
288.719643940102
0
LINE
5
169
100
AcDbEntity
8
0
100
AcDbLine
10
130.70710678118655
20
-240.70710678118655
30
0
11
131.41421356237311
21
-240
31
0
0
LINE
5
170
100
AcDbEntity
8
0
100
AcDbLine
10
129.29289321881345
20
-239.29289321881345
30
0
11
130
21
-238.58578643762689
31
0
0
LINE
5
171
100
AcDbEntity
8
0
100
AcDbLine
10
132.05879207775811
20
-233.81615139063945
30
0
11
132.02128793618081
21
-202
31
0
0
LINE
5
172
100
AcDbEntity
8
0
100
AcDbLine
10
145.4745166004061
20
-233.57645019878169
30
0
11
168
21
-211.05096679918776
31
0
0
LINE
5
173
100
AcDbEntity
8
0
100
AcDbLine
10
136.25766285892877
20
-224.69137034188347
30
0
11
158.94903320081224
21
-202
31
0
0
LINE
5
174
100
AcDbEntity
8
0
100
AcDbLine
10
134.12132034355963
20
-235.87867965644037
30
0
11
157.63026155571541
21
-212.36973844428462
31
0
0
LINE
5
175
100
AcDbEntity
8
0
100
AcDbLine
10
167.48447316889767
20
-202.51552683110233
30
0
11
168.02128164578517
21
-201.97871835421483
31
0
0
LINE
5
176
100
AcDbEntity
8
0
100
AcDbLine
10
133.41421356237308
20
-235.17157287525382
30
0
11
156.22084300084541
21
-212.36494343678152
31
0
0
LINE
5
177
100
AcDbEntity
8
0
100
AcDbLine
10
134.82842712474618
20
-236.58578643762692
30
0
11
157.63505656321573
21
-213.77915699915741
31
0
0
LINE
5
178
100
AcDbEntity
8
0
100
AcDbLine
10
168
20
-211.05096679918776
30
0
11
168
21
-237.94120792224226
31
0
0
LINE
5
179
100
AcDbEntity
8
0
100
AcDbLine
10
132.02128793618081
20
-202
30
0
11
158.94903320081224
21
-202
31
0
0
ARC
5
180
100
AcDbEntity
8
0
100
AcDbCircle
10
143.16203758981533
20
-226.75223042435897
30
0
40
6.0053823426690345
210
0
220
0
230
1
100
AcDbArc
50
247.15795436847142
51
286.16170229274508
0
LINE
5
181
100
AcDbEntity
8
0
100
AcDbLine
10
144.83363073966837
20
-232.52027978467171
30
0
11
167.09757490335187
21
-210.25633562098818
31
0
0
ARC
5
182
100
AcDbEntity
8
0
100
AcDbCircle
10
162.92585126654859
20
-207.07414873345141
30
0
40
5.2468649200331061
210
0
220
0
230
1
100
AcDbArc
50
-37.336354298491706
51
127.3363542984917
0
LINE
5
183
100
AcDbEntity
8
0
100
AcDbLine
10
137.33119987708767
20
-225.31488959857228
30
0
11
159.74366437901182
21
-202.90242509664813
31
0
0
ARC
5
184
100
AcDbEntity
8
0
100
AcDbCircle
10
143.16203758981533
20
-226.75223042435897
30
0
40
6.0053823426689608
210
0
220
0
230
1
100
AcDbArc
50
166.15228611843207
51
204.09739785864065
0
ARC
5
185
100
AcDbEntity
8
0
100
AcDbCircle
10
134.0633490911288
20
-235.93665090887129
30
0
40
2.1180073726217876
210
0
220
0
230
1
100
AcDbArc
50
132.99129328566636
51
317.00949330792463
0
LINE
5
186
100
AcDbEntity
8
0
100
AcDbLine
10
135.61260093662401
20
-237.38087178869193
30
0
11
167.76419809238723
21
-205.99320371560469
31
0
0
LINE
5
187
100
AcDbEntity
8
0
100
AcDbLine
10
132.05879207775811
20
-233.81615139063945
30
0
11
136.4350940852878
21
-229.33404486210247
31
0
0
LINE
5
188
100
AcDbEntity
8
0
100
AcDbLine
10
163.2807952607298
20
-201.83930334413293
30
0
11
164.31609871069378
21
-200.77896967791969
31
0
0
LINE
5
189
100
AcDbEntity
8
0
100
AcDbLine
10
136.18384860936035
20
-237.94120792224226
30
0
11
140.70629586361943
21
-233.52621501824953
31
0
0
LINE
5
190
100
AcDbEntity
8
0
100
AcDbLine
10
168.1610083860501
20
-206.72383255739499
30
0
11
168.32304192334621
21
-206.56564897289934
31
0
0
LINE
5
191
100
AcDbEntity
8
0
100
AcDbLine
10
134.12132034355963
20
-235.87867965644037
30
0
11
157.63026155571541
21
-212.36973844428462
31
0
0
LINE
5
192
100
AcDbEntity
8
0
100
AcDbLine
10
166.63594503147382
20
-203.3640549685262
30
0
11
167.48447316889767
21
-202.51552683110233
31
0
0
LINE
5
193
100
AcDbEntity
8
0
100
AcDbLine
10
132.61910694231094
20
-234.38741889072222
30
0
11
137.68000797765862
21
-229.20416199213918
31
0
0
LINE
5
194
100
AcDbEntity
8
0
100
AcDbLine
10
137.33119987708767
20
-225.31488959857228
30
0
11
137.89688530203691
21
-224.74920417362307
31
0
0
LINE
5
195
100
AcDbEntity
8
0
100
AcDbLine
10
137.89688530203691
20
-224.74920417362307
30
0
11
140.01592554910582
21
-226.86824442069201
31
0
0
LINE
5
196
100
AcDbEntity
8
0
100
AcDbLine
10
140.01592554910582
20
-226.86824442069201
30
0
11
139.45024012415658
21
-227.43392984564125
31
0
0
LINE
5
197
100
AcDbEntity
8
0
100
AcDbLine
10
139.45024012415658
20
-227.43392984564125
30
0
11
137.33119987708767
21
-225.31488959857228
31
0
0
LINE
5
198
100
AcDbEntity
8
0
100
AcDbLine
10
141.80726272811174
20
-225.07690724168609
30
0
11
139.68822248104283
21
-222.95786699461712
31
0
0
LINE
5
199
100
AcDbEntity
8
0
100
AcDbLine
10
140.25390790599207
20
-222.39218156966788
30
0
11
142.37294815306097
21
-224.51122181673685
31
0
0
LINE
5
200
100
AcDbEntity
8
0
100
AcDbLine
10
142.37294815306097
20
-224.51122181673685
30
0
11
141.80726272811174
21
-225.07690724168609
31
0
0
LINE
5
201
100
AcDbEntity
8
0
100
AcDbLine
10
144.1642853320669
20
-222.7198846377309
30
0
11
142.04524508499799
21
-220.60084439066196
31
0
0
LINE
5
202
100
AcDbEntity
8
0
100
AcDbLine
10
142.61093050994722
20
-220.03515896571272
30
0
11
144.72997075701613
21
-222.15419921278169
31
0
0
LINE
5
203
100
AcDbEntity
8
0
100
AcDbLine
10
144.72997075701613
20
-222.15419921278169
30
0
11
144.1642853320669
21
-222.7198846377309
31
0
0
LINE
5
204
100
AcDbEntity
8
0
100
AcDbLine
10
146.52130793602205
20
-220.3628620337758
30
0
11
144.40226768895315
21
-218.2438217867068
31
0
0
LINE
5
205
100
AcDbEntity
8
0
100
AcDbLine
10
144.96795311390238
20
-217.67813636175759
30
0
11
147.08699336097129
21
-219.79717660882656
31
0
0
LINE
5
206
100
AcDbEntity
8
0
100
AcDbLine
10
147.08699336097129
20
-219.79717660882656
30
0
11
146.52130793602205
21
-220.3628620337758
31
0
0
LINE
5
207
100
AcDbEntity
8
0
100
AcDbLine
10
148.87833053997721
20
-218.00583942982061
30
0
11
146.7592902929083
21
-215.88679918275164
31
0
0
LINE
5
208
100
AcDbEntity
8
0
100
AcDbLine
10
147.32497571785754
20
-215.32111375780244
30
0
11
149.44401596492645
21
-217.4401540048714
31
0
0
LINE
5
209
100
AcDbEntity
8
0
100
AcDbLine
10
149.44401596492645
20
-217.4401540048714
30
0
11
148.87833053997721
21
-218.00583942982061
31
0
0
LINE
5
210
100
AcDbEntity
8
0
100
AcDbLine
10
151.23535314393237
20
-215.64881682586545
30
0
11
149.11631289686346
21
-213.52977657879649
31
0
0
LINE
5
211
100
AcDbEntity
8
0
100
AcDbLine
10
149.6819983218127
20
-212.96409115384728
30
0
11
151.80103856888161
21
-215.08313140091622
31
0
0
LINE
5
212
100
AcDbEntity
8
0
100
AcDbLine
10
151.80103856888161
20
-215.08313140091622
30
0
11
151.23535314393237
21
-215.64881682586545
31
0
0
LINE
5
213
100
AcDbEntity
8
0
100
AcDbLine
10
153.59237574788753
20
-213.29179422191029
30
0
11
151.47333550081862
21
-211.17275397484133
31
0
0
LINE
5
214
100
AcDbEntity
8
0
100
AcDbLine
10
152.03902092576786
20
-210.60706854989209
30
0
11
154.15806117283677
21
-212.72610879696106
31
0
0
LINE
5
215
100
AcDbEntity
8
0
100
AcDbLine
10
154.15806117283677
20
-212.72610879696106
30
0
11
153.59237574788753
21
-213.29179422191029
31
0
0
LINE
5
216
100
AcDbEntity
8
0
100
AcDbLine
10
155.94939835184272
20
-210.93477161795516
30
0
11
153.83035810477378
21
-208.8157313708862
31
0
0
LINE
5
217
100
AcDbEntity
8
0
100
AcDbLine
10
154.39604352972304
20
-208.25004594593696
30
0
11
156.51508377679195
21
-210.36908619300593
31
0
0
LINE
5
218
100
AcDbEntity
8
0
100
AcDbLine
10
156.51508377679195
20
-210.36908619300593
30
0
11
155.94939835184272
21
-210.93477161795516
31
0
0
LINE
5
219
100
AcDbEntity
8
0
100
AcDbLine
10
158.30642095579785
20
-208.57774901400001
30
0
11
156.18738070872894
21
-206.45870876693101
31
0
0
LINE
5
220
100
AcDbEntity
8
0
100
AcDbLine
10
156.75306613367817
20
-205.8930233419818
30
0
11
158.87210638074708
21
-208.01206358905077
31
0
0
LINE
5
221
100
AcDbEntity
8
0
100
AcDbLine
10
158.87210638074708
20
-208.01206358905077
30
0
11
158.30642095579785
21
-208.57774901400001
31
0
0
LINE
5
222
100
AcDbEntity
8
0
100
AcDbLine
10
160.66344355975303
20
-206.22072641004482
30
0
11
158.5444033126841
21
-204.10168616297585
31
0
0
LINE
5
223
100
AcDbEntity
8
0
100
AcDbLine
10
159.11008873763333
20
-203.53600073802664
30
0
11
161.22912898470224
21
-205.65504098509561
31
0
0
LINE
5
224
100
AcDbEntity
8
0
100
AcDbLine
10
161.22912898470224
20
-205.65504098509561
30
0
11
160.66344355975303
21
-206.22072641004482
31
0
0
LWPOLYLINE
5
225
100
AcDbEntity
8
0
100
AcDbPolyline
90
4
70
1
43
0.0
10
220
20
-200
10
180
20
-200
10
180
20
-240
10
220
20
-240
0
LINE
5
226
100
AcDbEntity
8
0
100
AcDbLine
10
212.3359541505065
20
-200
30
0
11
198.11198067105963
21
-200
31
0
0
LWPOLYLINE
5
227
100
AcDbEntity
8
0
100
AcDbPolyline
90
4
70
1
43
0.0
10
208.09493433431473
20
-235.3951961182145
42
-0.5454314723212379
10
192.03902546550171
20
-235.39519611821453
10
192.03902546550171
20
-220.72089884142528
42
0.54543147232124001
10
208.09493433431476
20
-220.72089884142528
0
ARC
5
228
100
AcDbEntity
8
0
100
AcDbCircle
10
200.06697989990823
20
-212.16460251610587
30
0
40
9.5486190375618776
210
0
220
0
230
1
100
AcDbArc
50
212.78111840977314
51
327.21888159022689
0
ARC
5
229
100
AcDbEntity
8
0
100
AcDbCircle
10
200.06697989990823
20
-208.77822622146223
30
0
40
9.5486190375618776
210
0
220
0
230
1
100
AcDbArc
50
212.78111840977314
51
327.21888159022689
0
LINE
5
230
100
AcDbEntity
8
0
100
AcDbLine
10
200.06697989990823
20
-200.10764205738965
30
0
11
202.63615099211009
21
-200.10764205738965
31
0
0
LINE
5
231
100
AcDbEntity
8
0
100
AcDbLine
10
202.63615099211009
20
-200.10764205738965
30
0
11
205.08123453839494
21
-207.03724862971927
31
0
0
LINE
5
232
100
AcDbEntity
8
0
100
AcDbLine
10
205.08123453839494
20
-207.03724862971927
30
0
11
205.08123453839494
21
-214.93712132006991
31
0
0
LINE
5
233
100
AcDbEntity
8
0
100
AcDbLine
10
195.05272526142153
20
-207.03724862971927
30
0
11
195.05272526142153
21
-214.93712132006991
31
0
0
LINE
5
234
100
AcDbEntity
8
0
100
AcDbLine
10
197.49780880770641
20
-200.10764205738965
30
0
11
195.05272526142153
21
-207.03724862971927
31
0
0
LINE
5
235
100
AcDbEntity
8
0
100
AcDbLine
10
200.06697989990823
20
-200.10764205738965
30
0
11
197.49780880770641
21
-200.10764205738965
31
0
0
ARC
5
236
100
AcDbEntity
8
0
100
AcDbCircle
10
200.06697989990823
20
-210.28691448023025
30
0
40
6.8386528814435952
210
0
220
0
230
1
100
AcDbArc
50
222.8427618247301
51
317.15723817526987
0
LINE
5
237
100
AcDbEntity
8
0
100
AcDbLine
10
206.98761899421046
20
-218.74342308296323
30
0
11
206.98761899421046
21
-222.12979937760693
31
0
0
LINE
5
238
100
AcDbEntity
8
0
100
AcDbLine
10
193.14634080560603
20
-218.74342308296323
30
0
11
193.14634080560603
21
-222.12979937760693
31
0
0
ARC
5
239
100
AcDbEntity
8
0
100
AcDbCircle
10
200.06697989990826
20
-219.05023431521471
30
0
40
9.5486190375619255
210
0
220
-0
230
1
100
AcDbArc
50
32.781118409773214
51
58.323087129261481
0
ARC
5
240
100
AcDbEntity
8
0
100
AcDbCircle
10
200.06697989990826
20
-219.05023431521471
30
0
40
9.5486190375618758
210
0
220
0
230
1
100
AcDbArc
50
121.67691287073905
51
147.2188815902266
0
LINE
5
241
100
AcDbEntity
8
0
100
AcDbLine
10
200.06697989990823
20
-218.32684525902405
30
0
11
200.06697989990823
21
-217.12556736167389
31
0
0
LINE
5
242
100
AcDbEntity
8
0
100
AcDbLine
10
208.09493433431476
20
-217.33452254678159
30
0
11
208.09493433431481
21
-213.88031428453897
31
0
0
LINE
5
243
100
AcDbEntity
8
0
100
AcDbLine
10
192.03902546550177
20
-213.88031428453897
30
0
11
192.03902546550171
21
-217.33452254678159
31
0
0
ARC
5
244
100
AcDbEntity
8
0
100
AcDbCircle
10
200.06697989990823
20
-200.68686631879643
30
0
40
8.091359902665749
210
0
220
0
230
1
100
AcDbArc
50
231.70541877462412
51
308.29458122537591
0
ARC
5
245
100
AcDbEntity
8
0
100
AcDbCircle
10
200.06697989990823
20
-227.88597447378078
30
0
40
10.760407112106961
210
0
220
0
230
1
100
AcDbArc
50
130.02768908674747
51
138.25058654051625
0
ARC
5
246
100
AcDbEntity
8
0
100
AcDbCircle
10
200.06697989990823
20
-227.88597447378078
30
0
40
10.760407112106964
210
0
220
-0
230
1
100
AcDbArc
50
41.749413459483762
51
49.972310913252421
0
SPLINE
5
247
100
AcDbEntity
8
0
100
AcDbSpline
70
4
71
5
72
21
73
15
74
0
42
0.000000001
43
0.0000000001
44
0.0000000001
40
0
40
0
40
0
40
0
40
0
40
0
40
0.040412820814488479
40
0.040412820814488479
40
0.040412820814488479
40
0.040412820814488479
40
0.040412820814488479
40
0.2404128208144885
40
0.44041282081448851
40
0.64041282081448858
40
0.84041282081448854
40
1.0404128208144885
40
1.0404128208144885
40
1.0404128208144885
40
1.0404128208144885
40
1.0404128208144885
40
1.0404128208144885
41
1
41
1
41
1
41
1
41
1
41
1
41
1
41
1
41
1
41
1
41
1
41
1
41
1
41
1
41
1
10
38.311831033836008
20
-235.45980198741631
30
0
10
38.27915287202152
20
-235.53372709874637
30
0
10
38.246474710207039
20
-235.60765221007642
30
0
10
38.213796548392558
20
-235.68157732140648
30
0
10
38.181118386578071
20
-235.75550243273653
30
0
10
38.14844022476359
20
-235.82942754406659
30
0
10
38.08717032497163
20
-235.96803338698439
30
0
10
37.974801468821028
20
-236.24205063750657
30
0
10
37.836733156990178
20
-236.64351358791561
30
0
10
37.704847366973667
20
-237.17248796483943
30
0
10
37.59540259780983
20
-237.89873305994334
30
0
10
37.531357309994846
20
-238.61757189288784
30
0
10
37.489443223362152
20
-239.28814059972393
30
0
10
37.463544572443233
20
-239.80416104812338
30
0
10
37.45110617163202
20
-240.07943106199832
30
0
0
CIRCLE
5
248
100
AcDbEntity
8
0
100
AcDbCircle
10
150.02002489281398
20
-219.97997510718645
30
0
40
5.1000000000000068
210
0
220
0
230
1
0
CIRCLE
5
249
100
AcDbEntity
8
0
100
AcDbCircle
10
200.06697989990826
20
-219.05023431521471
30
0
40
5.1000000000000085
210
0
220
0
230
1
0
ENDSEC
0
SECTION
2
OBJECTS
0
DICTIONARY
5
C
100
AcDbDictionary
3
ACAD_GROUP
350
D
3
ACAD_MLINESTYLE
350
17
0
DICTIONARY
5
D
100
AcDbDictionary
0
DICTIONARY
5
1A
330
C
100
AcDbDictionary
0
DICTIONARY
5
17
100
AcDbDictionary
0
ENDSEC
0
EOF
